memory_initialization_radix=16;
memory_initialization_vector=
128,
128,
128,
118,
218,
218,
218,
118,
128,
128,
129,
118,
218,
317,
416,
505,
604,
603,
603,
703,
703,
603,
603,
504,
505,
416,
316,
217,
118,
128,
128,
128,
128,
228,
128,
128,
118,
118,
128,
128,
128,
128,
128,
118,
128,
128,
128,
218,
218,
218,
217,
317,
416,
516,
615,
815,
915,
914,
914,
A14,
A14,
914,
914,
915,
815,
615,
516,
416,
317,
217,
218,
128,
128,
128,
218,
218,
128,
128,
128,
128,
128,
128,
128,
129,
129,
129,
129,
218,
317,
416,
505,
704,
804,
903,
B03,
C03,
C02,
C02,
C02,
C02,
C02,
C02,
C02,
C02,
C03,
B03,
A04,
805,
605,
416,
317,
217,
128,
128,
219,
218,
128,
128,
128,
118,
218,
118,
129,
129,
129,
128,
218,
317,
406,
605,
804,
A03,
C02,
D01,
D01,
D01,
E01,
E01,
E01,
D01,
D01,
D01,
E01,
E01,
E01,
E02,
D02,
C03,
A04,
815,
605,
416,
227,
128,
218,
218,
128,
128,
128,
118,
218,
128,
129,
129,
118,
117,
317,
516,
705,
903,
B02,
D01,
E00,
E00,
E00,
E01,
F01,
E01,
E01,
E01,
D01,
D01,
E00,
E00,
E00,
E00,
E01,
E02,
C02,
B03,
A03,
704,
416,
217,
218,
118,
128,
128,
128,
128,
218,
128,
129,
128,
117,
316,
515,
714,
A14,
C02,
D01,
E00,
E00,
E00,
E00,
E01,
E01,
E01,
E01,
E01,
D01,
D01,
E00,
E00,
E00,
E00,
E00,
E01,
E01,
D01,
D01,
B13,
704,
516,
317,
117,
128,
128,
128,
128,
118,
128,
129,
218,
317,
515,
814,
B13,
D02,
D01,
E00,
E00,
E00,
D00,
D01,
E01,
E01,
E01,
E01,
E01,
E01,
E01,
E01,
E01,
E01,
E01,
E01,
E01,
E01,
E00,
E00,
D01,
B03,
814,
515,
216,
228,
128,
128,
128,
118,
218,
218,
317,
516,
714,
B13,
D12,
E01,
E00,
E00,
E00,
D00,
D00,
D01,
D01,
D01,
E01,
E01,
E01,
E01,
E01,
E01,
E01,
E01,
E01,
E01,
E01,
E01,
E00,
E00,
E00,
D02,
B03,
714,
415,
227,
128,
128,
127,
128,
218,
317,
406,
705,
A14,
D02,
D01,
E01,
E01,
E01,
E01,
D01,
D01,
E01,
E01,
E01,
E01,
E00,
E00,
E00,
E00,
E00,
E01,
E01,
E01,
E01,
E01,
E01,
E01,
E01,
E01,
E01,
D02,
B13,
714,
316,
128,
228,
228,
129,
218,
416,
605,
903,
C02,
D01,
E00,
E01,
E01,
E01,
E01,
D01,
E00,
E00,
E00,
E01,
E01,
E01,
E00,
E00,
E00,
E00,
E00,
E01,
E01,
E01,
E01,
E01,
E01,
E01,
E01,
E00,
E01,
D02,
903,
516,
217,
217,
227,
129,
217,
505,
804,
B02,
D01,
E00,
E00,
E01,
E01,
E01,
E01,
E00,
E00,
E00,
E00,
E01,
E01,
E01,
E01,
E01,
E01,
E01,
E00,
E00,
E00,
E00,
E00,
E00,
E01,
E01,
E01,
E01,
E01,
E01,
C02,
805,
416,
217,
127,
118,
317,
704,
A03,
D01,
E00,
E00,
E00,
E01,
D01,
E00,
E00,
E00,
E00,
E00,
E01,
E01,
E01,
E01,
E01,
E01,
E01,
E01,
E01,
E00,
E00,
E00,
E00,
E00,
E01,
E01,
E01,
E01,
E01,
E00,
D02,
A04,
605,
317,
127,
218,
416,
804,
C02,
E00,
E00,
E00,
D00,
D00,
D00,
E00,
E00,
E00,
E01,
E01,
E01,
E00,
E00,
E01,
E01,
E01,
E01,
E01,
E01,
E01,
E01,
E00,
E01,
E01,
E01,
E01,
E01,
E01,
D01,
E00,
E01,
D03,
904,
416,
117,
317,
516,
903,
D01,
E00,
E00,
D00,
D00,
D01,
E00,
E00,
E00,
E01,
D01,
E01,
E01,
E01,
E01,
E01,
E01,
E01,
E01,
E01,
E01,
E01,
E01,
E01,
E01,
E01,
E01,
E01,
E01,
E01,
E01,
E00,
E01,
E02,
A03,
516,
217,
416,
615,
B03,
D01,
E00,
E00,
D01,
D01,
E01,
E00,
E00,
E00,
E01,
E01,
E01,
E01,
E01,
E01,
E01,
E01,
E01,
E01,
E01,
E01,
E01,
E01,
E01,
E01,
E01,
E01,
E01,
E01,
E01,
E01,
E00,
E00,
E01,
B03,
615,
316,
505,
815,
C03,
D01,
E01,
E01,
E01,
D01,
E01,
E00,
E01,
E01,
E01,
E01,
E01,
E01,
E01,
E01,
E01,
E01,
E01,
E01,
E01,
E01,
E01,
E01,
E01,
E01,
E01,
E01,
E01,
E01,
E00,
E00,
E00,
E00,
D00,
B02,
715,
416,
604,
915,
C02,
E01,
F01,
E01,
E01,
D01,
E01,
E01,
E01,
E01,
E01,
E01,
E01,
E01,
E01,
E01,
E01,
E01,
E01,
E01,
E01,
E01,
E01,
E01,
E01,
E01,
E01,
E01,
E01,
E01,
E01,
E01,
E00,
E00,
D01,
C02,
915,
605,
603,
914,
C02,
E01,
E01,
E01,
E01,
E01,
E01,
E01,
E01,
E01,
E01,
E01,
E01,
E01,
E01,
E01,
E01,
E01,
E01,
E01,
E01,
E01,
E01,
E01,
E01,
E01,
E01,
E01,
E01,
E01,
E01,
E01,
E00,
E00,
E01,
C02,
915,
604,
603,
914,
C02,
E01,
E01,
E01,
E01,
E01,
E00,
E01,
E01,
E01,
E01,
E01,
E01,
E01,
E01,
E01,
E01,
E01,
E01,
E01,
E01,
E01,
E01,
E01,
E01,
E01,
E01,
E01,
E01,
E01,
E01,
E01,
E00,
E01,
E01,
C02,
A14,
604,
703,
A14,
C02,
D01,
E01,
E01,
E01,
E01,
E00,
E00,
E01,
E01,
E01,
E01,
E01,
E01,
E01,
E01,
E01,
E01,
E01,
E01,
E01,
E01,
E01,
E01,
E01,
E01,
E01,
E01,
E01,
E01,
E00,
E01,
E01,
E01,
E01,
D02,
A14,
704,
703,
A14,
C02,
D01,
D01,
D01,
E01,
E01,
E00,
E00,
E01,
E01,
E01,
E01,
E01,
E00,
E01,
E01,
E01,
E01,
E01,
E01,
E01,
E01,
E01,
E01,
E01,
E01,
E01,
E01,
E01,
E00,
E00,
E01,
E01,
E01,
E01,
D02,
A14,
704,
603,
914,
C02,
D01,
D01,
D01,
E01,
E01,
E00,
E00,
E01,
E01,
E01,
E01,
E01,
E01,
E01,
E01,
E01,
E01,
E01,
E01,
E01,
E01,
E01,
E01,
E01,
E01,
E01,
E01,
E01,
E01,
E00,
E01,
E01,
E01,
E01,
D02,
A14,
604,
603,
914,
C02,
E01,
E00,
D00,
E01,
E01,
E00,
E00,
E01,
E01,
E01,
E01,
E01,
E01,
E01,
E01,
E01,
E01,
E01,
E01,
E01,
E01,
E01,
E01,
E01,
E01,
E01,
E01,
E01,
E01,
E00,
E01,
D01,
E01,
E00,
D02,
914,
604,
504,
915,
C02,
E01,
E00,
E00,
E01,
E01,
E01,
E00,
E00,
E01,
E01,
E01,
E01,
E01,
E01,
E01,
E01,
E01,
E01,
E01,
E01,
E01,
E01,
E01,
E01,
E01,
E01,
E01,
E01,
E01,
E01,
E01,
D01,
E01,
E00,
D02,
915,
505,
505,
815,
C03,
E01,
E00,
E00,
E01,
E01,
E01,
E01,
E00,
E00,
E01,
E01,
E01,
E01,
E01,
E01,
E01,
E01,
E01,
E01,
E01,
E01,
E01,
E01,
E01,
E01,
E01,
E01,
E01,
E01,
E01,
E01,
D00,
D00,
E00,
C02,
815,
406,
416,
615,
B03,
E02,
E00,
E00,
E01,
E01,
E01,
E01,
E00,
E00,
E01,
E01,
E01,
E01,
E01,
E01,
E01,
E01,
E01,
E01,
E01,
E01,
E01,
E01,
E01,
E01,
E01,
E01,
E01,
E01,
E01,
E01,
D00,
E00,
E00,
C02,
615,
316,
316,
516,
A04,
D02,
E01,
E00,
E01,
E01,
E01,
E01,
E00,
E00,
E01,
E01,
E01,
E01,
E01,
E01,
E01,
E01,
E01,
E01,
E01,
E01,
E01,
E01,
E01,
E01,
E01,
E01,
E01,
E01,
E01,
E01,
E00,
E01,
E01,
B03,
516,
217,
217,
416,
805,
C03,
E02,
E01,
E01,
E01,
E01,
E01,
E00,
E00,
E01,
E01,
E01,
E01,
E01,
E01,
E01,
E01,
E01,
E01,
E01,
E01,
E01,
E01,
E01,
E01,
E01,
E01,
E01,
E01,
E01,
E01,
E00,
E01,
C02,
904,
416,
218,
118,
317,
605,
A04,
C02,
E01,
E01,
E01,
E01,
E01,
E00,
E00,
E01,
E01,
E01,
E01,
E01,
E01,
E01,
E01,
E01,
E01,
E01,
E01,
E01,
E01,
E01,
E01,
E01,
E01,
E01,
E01,
E01,
E01,
E01,
D02,
A04,
705,
317,
118,
128,
217,
416,
815,
B03,
D01,
E00,
E00,
E01,
E01,
E01,
E01,
E01,
E01,
E01,
E01,
E01,
E01,
E01,
E01,
E01,
E01,
E01,
E01,
E01,
E01,
E01,
E01,
E01,
E01,
E01,
E01,
E01,
E01,
D01,
B03,
815,
416,
217,
118,
128,
218,
317,
605,
A03,
C01,
E00,
E00,
E01,
E01,
E01,
E01,
E01,
E01,
E01,
E01,
E01,
E01,
E01,
E01,
E01,
E01,
E01,
E01,
E01,
E01,
E01,
E01,
E01,
E01,
E01,
E01,
E00,
E01,
D02,
A03,
515,
217,
218,
128,
128,
128,
217,
416,
704,
B13,
D01,
E00,
E01,
E01,
E01,
E01,
E01,
E01,
E01,
E01,
E01,
E01,
E01,
E01,
E01,
E01,
E01,
E01,
E01,
E01,
E01,
E01,
E01,
E01,
E01,
E01,
E00,
D02,
B03,
704,
316,
128,
128,
128,
128,
128,
128,
227,
416,
704,
B03,
D02,
E01,
E00,
E01,
E01,
E01,
E01,
E01,
E00,
E01,
E01,
E01,
E00,
E00,
E00,
E00,
E01,
E01,
E01,
E01,
E01,
E01,
E01,
E00,
E00,
E02,
B03,
704,
416,
218,
128,
128,
128,
118,
128,
128,
128,
217,
516,
814,
B03,
D02,
E01,
E01,
E01,
D01,
E01,
E01,
E00,
E01,
E01,
E01,
E01,
E01,
E01,
E01,
E01,
E01,
E01,
E01,
E01,
E01,
E01,
E01,
D02,
B03,
804,
416,
217,
218,
129,
128,
127,
128,
228,
219,
218,
218,
317,
515,
714,
B13,
D02,
E01,
E00,
E00,
E00,
E00,
E00,
E00,
E00,
E00,
E01,
E01,
E01,
D01,
D01,
D00,
D00,
E00,
E00,
E01,
D01,
D02,
B03,
704,
416,
216,
127,
118,
128,
128,
128,
128,
218,
218,
218,
118,
117,
216,
415,
714,
903,
C02,
D02,
E01,
E01,
E01,
E00,
E00,
E00,
E01,
E01,
E01,
E01,
E01,
E01,
D00,
E00,
E01,
E01,
D02,
B03,
A03,
704,
416,
217,
117,
128,
128,
228,
128,
128,
118,
128,
128,
128,
128,
128,
228,
227,
316,
516,
805,
A04,
D03,
E02,
E01,
D00,
D01,
E01,
E01,
E01,
E01,
E01,
E00,
E00,
E00,
E00,
E01,
C02,
A04,
815,
515,
316,
218,
218,
118,
128,
128,
228,
128,
128,
118,
128,
128,
128,
128,
128,
128,
128,
128,
217,
416,
605,
904,
A03,
B03,
B02,
C02,
C02,
C02,
D02,
D02,
D02,
D02,
D02,
C02,
C02,
B03,
904,
705,
416,
217,
128,
128,
129,
128,
228,
228,
128,
128,
128,
128,
128,
128,
128,
128,
128,
128,
128,
228,
217,
217,
317,
416,
516,
615,
715,
915,
915,
A14,
A14,
A14,
A14,
914,
915,
815,
615,
516,
416,
317,
217,
218,
128,
128,
128,
128,
128,
128,
128,
128,
128,
128,
128,
118,
118,
128,
128,
128,
127,
228,
227,
128,
127,
117,
217,
316,
416,
505,
604,
604,
704,
704,
604,
604,
505,
406,
316,
217,
218,
118,
118,
218,
128,
128,
127,
128,
128,
128,
128,
128,
128;
